6.0: Testing how production will work (with seabream)
…
# Summarise
farm_temps %>% 
  bind_rows() %>% 
  group_by(country) %>% 
  reframe(
    mean_start = mean(doy_start),
    min_start = min(doy_start),
    max_start = max(doy_start),
    mean_end = mean(doy_end),
    min_end = min(doy_end),
    max_end = max(doy_end)
  )

# A tibble: 32 × 7
   country            mean_start min_start max_start mean_end min_end max_end
   <chr>                   <dbl>     <dbl>     <dbl>    <dbl>   <dbl>   <dbl>
 1 Albania                    98        98        98      730     730     730
 2 Algeria                    91        91        91      723     723     723
 3 Bahrain                     1         1         1      633     633     633
 4 China                      72        72        72      704     704     704
 5 Croatia                    98        98        98      730     730     730
 6 Cyprus                     98        98        98      730     730     730
 7 Dominican Republic          1         1         1      633     633     633
 8 Egypt                      98        98        98      730     730     730
 9 France                     98        98        98      730     730     730
10 Greece                     98        98        98      730     730     730
# ℹ 22 more rows
…
